Bitcoin,BTC,https://coinmarketcap.com//currencies/bitcoin/,50843.68
Ethereum,ETH,https://coinmarketcap.com//currencies/ethereum/,1691.14
Binance Coin,BNB,https://coinmarketcap.com//currencies/binance-coin/,237.03
Tether,USDT,https://coinmarketcap.com//currencies/tether/,1.0
Cardano,ADA,https://coinmarketcap.com//currencies/cardano/,1.13
Polkadot,DOT,https://coinmarketcap.com//currencies/polkadot-new/,34.72
XRP,XRP,https://coinmarketcap.com//currencies/xrp/,0.4653
Uniswap,UNI,https://coinmarketcap.com//currencies/uniswap/,33.63
Litecoin,LTC,https://coinmarketcap.com//currencies/litecoin/,188.53
Chainlink,LINK,https://coinmarketcap.com//currencies/chainlink/,28.24
Bitcoin Cash,BCH,https://coinmarketcap.com//currencies/bitcoin-cash/,512.7
Stellar,XLM,https://coinmarketcap.com//currencies/stellar/,0.41
USD Coin,USDC,https://coinmarketcap.com//currencies/usd-coin/,1.0
Dogecoin,DOGE,https://coinmarketcap.com//currencies/dogecoin/,0.05
NEM,XEM,https://coinmarketcap.com//currencies/nem/,0.71
Wrapped Bitcoin,WBTC,https://coinmarketcap.com//currencies/wrapped-bitcoin/,50870.39
Aave,AAVE,https://coinmarketcap.com//currencies/aave/,398.48
THETA,THETA,https://coinmarketcap.com//currencies/theta/,4.35
Cosmos,ATOM,https://coinmarketcap.com//currencies/cosmos/,19.28
Crypto.com Coin,CRO,https://coinmarketcap.com//currencies/crypto-com-coin/,0.16
Monero,XMR,https://coinmarketcap.com//currencies/monero/,208.6
VeChain,VET,https://coinmarketcap.com//currencies/vechain/,0.06
TRON,TRX,https://coinmarketcap.com//currencies/tron/,0.05
IOTA,MIOTA,https://coinmarketcap.com//currencies/iota/,1.3
EOS,EOS,https://coinmarketcap.com//currencies/eos/,3.8
Solana,SOL,https://coinmarketcap.com//currencies/solana/,13.81
Bitcoin SV,BSV,https://coinmarketcap.com//currencies/bitcoin-sv/,184.79
Terra,LUNA,https://coinmarketcap.com//currencies/terra-luna/,8.24
Tezos,XTZ,https://coinmarketcap.com//currencies/tezos/,4.19
Binance USD,BUSD,https://coinmarketcap.com//currencies/binance-usd/,1.0
FTX Token,FTT,https://coinmarketcap.com//currencies/ftx-token/,30.52
Huobi Token,HT,https://coinmarketcap.com//currencies/huobi-token/,15.31
Neo,NEO,https://coinmarketcap.com//currencies/neo/,38.95
Dai,DAI,https://coinmarketcap.com//currencies/multi-collateral-dai/,1.0
Elrond,EGLD,https://coinmarketcap.com//currencies/elrond-egld/,145.37
Algorand,ALGO,https://coinmarketcap.com//currencies/algorand/,1.1
Synthetix,SNX,https://coinmarketcap.com//currencies/synthetix-network-token/,21.33
Filecoin,FIL,https://coinmarketcap.com//currencies/filecoin/,41.03
The Graph,GRT,https://coinmarketcap.com//currencies/the-graph/,1.86
Compound,COMP,https://coinmarketcap.com//currencies/compound/,483.67
SushiSwap,SUSHI,https://coinmarketcap.com//currencies/sushiswap/,17.52
Avalanche,AVAX,https://coinmarketcap.com//currencies/avalanche/,26.2
Maker,MKR,https://coinmarketcap.com//currencies/maker/,2208.85
Dash,DASH,https://coinmarketcap.com//currencies/dash/,213.0
Kusama,KSM,https://coinmarketcap.com//currencies/kusama/,232.94
Decred,DCR,https://coinmarketcap.com//currencies/decred/,152.74
UNUS SED LEO,LEO,https://coinmarketcap.com//currencies/unus-sed-leo/,1.85
PancakeSwap,CAKE,https://coinmarketcap.com//currencies/pancakeswap/,11.48
Zcash,ZEC,https://coinmarketcap.com//currencies/zcash/,127.96
yearn.finance,YFI,https://coinmarketcap.com//currencies/yearn-finance/,38033.52
Voyager Token,VGX,https://coinmarketcap.com//currencies/voyager-token/,6.1
THORChain,RUNE,https://coinmarketcap.com//currencies/thorchain/,5.65
Ethereum Classic,ETC,https://coinmarketcap.com//currencies/ethereum-classic/,11.47
NEAR Protocol,NEAR,https://coinmarketcap.com//currencies/near-protocol/,4.22
Ravencoin,RVN,https://coinmarketcap.com//currencies/ravencoin/,0.16
Zilliqa,ZIL,https://coinmarketcap.com//currencies/zilliqa/,0.12
Bitcoin BEP2,BTCB,https://coinmarketcap.com//currencies/bitcoin-bep2/,50297.9
Bancor,BNT,https://coinmarketcap.com//currencies/bancor/,8.33
UMA,UMA,https://coinmarketcap.com//currencies/uma/,22.1
BitTorrent,BTT,https://coinmarketcap.com//currencies/bittorrent/,0.0
Nexo,NEXO,https://coinmarketcap.com//currencies/nexo/,2.17
Celsius,CEL,https://coinmarketcap.com//currencies/celsius/,5.03
Ren,REN,https://coinmarketcap.com//currencies/ren/,1.19
ICON,ICX,https://coinmarketcap.com//currencies/icon/,1.97
Enjin Coin,ENJ,https://coinmarketcap.com//currencies/enjin-coin/,1.38
Hedera Hashgraph,HBAR,https://coinmarketcap.com//currencies/hedera-hashgraph/,0.15
Fantom,FTM,https://coinmarketcap.com//currencies/fantom/,0.44
SwissBorg,CHSB,https://coinmarketcap.com//currencies/swissborg/,1.14
0x,ZRX,https://coinmarketcap.com//currencies/0x/,1.38
Polygon,MATIC,https://coinmarketcap.com//currencies/polygon/,0.21
Waves,WAVES,https://coinmarketcap.com//currencies/waves/,10.04
Revain,REV,https://coinmarketcap.com//currencies/revain/,0.01
OKB,OKB,https://coinmarketcap.com//currencies/okb/,17.36
Basic Attention Token,BAT,https://coinmarketcap.com//currencies/basic-attention-token/,0.69
Stacks,STX,https://coinmarketcap.com//currencies/stacks/,1.2
Ontology,ONT,https://coinmarketcap.com//currencies/ontology/,1.04
Flow,FLOW,https://coinmarketcap.com//currencies/flow/,33.82
TerraUSD,UST,https://coinmarketcap.com//currencies/terrausd/,1.0
DigiByte,DGB,https://coinmarketcap.com//currencies/digibyte/,0.06
Theta Fuel,TFUEL,https://coinmarketcap.com//currencies/theta-fuel/,0.15
renBTC,RENBTC,https://coinmarketcap.com//currencies/renbtc/,50570.19
IOST,IOST,https://coinmarketcap.com//currencies/iostoken/,0.05
OMG Network,OMG,https://coinmarketcap.com//currencies/omg/,5.07
Celo,CELO,https://coinmarketcap.com//currencies/celo/,3.84
Chiliz,CHZ,https://coinmarketcap.com//currencies/chiliz/,0.13
Reserve Rights,RSR,https://coinmarketcap.com//currencies/reserve-rights/,0.07
Nano,NANO,https://coinmarketcap.com//currencies/nano/,5.18
Loopring,LRC,https://coinmarketcap.com//currencies/loopring/,0.56
Paxos Standard,PAX,https://coinmarketcap.com//currencies/paxos-standard/,1.0
HUSD,HUSD,https://coinmarketcap.com//currencies/husd/,1.0
Decentraland,MANA,https://coinmarketcap.com//currencies/decentraland/,0.4
Ocean Protocol,OCEAN,https://coinmarketcap.com//currencies/ocean-protocol/,1.48
Qtum,QTUM,https://coinmarketcap.com//currencies/qtum/,6.3
1inch,1INCH,https://coinmarketcap.com//currencies/1inch/,3.94
ZKSwap,ZKS,https://coinmarketcap.com//currencies/zkswap/,2.9
Horizen,ZEN,https://coinmarketcap.com//currencies/horizen/,50.32
Curve DAO Token,CRV,https://coinmarketcap.com//currencies/curve-dao-token/,2.21
Holo,HOT,https://coinmarketcap.com//currencies/holo/,0.0
Siacoin,SC,https://coinmarketcap.com//currencies/siacoin/,0.01
Bitcoin Gold,BTG,https://coinmarketcap.com//currencies/bitcoin-gold/,28.91
