title,link,duration,views,posted
Pydantic — умопомрачительная валидация данных на Python! JSON + Pydantic = ❤️,https://www.youtube.com/watch?v=dOO3GmX6ukU,23:22,20K views,1 week ago
"Автор книг «глазами хакера» об ИТ в 90х и сейчас, разработке и Канаде. Михаил Фленов",https://www.youtube.com/watch?v=iTyuMwYSfAw,1:03:16,20K views,3 weeks ago
"MacBook Air M1 после двух месяцев — плюсы и минусы для разработчика. Docker, производительность",https://www.youtube.com/watch?v=64A3R-XLC4I,26:37,69K views,1 month ago
"С чего начать IT проект? Как работать с большими проектами — этапы, важные аспекты, советы",https://www.youtube.com/watch?v=F3STHxfABf4,21:14,13K views,1 month ago
"Macbook Air M1 для программиста — первый взгляд. MacBook Air Apple Silicon, жизнь есть?",https://www.youtube.com/watch?v=Fok17zwfXAY,19:51,72K views,3 months ago
"Стрим — комментарии по инвестициям, ответы на вопросы",https://www.youtube.com/watch?v=IhL1U8Y76c8,2:30:05,7.6K views,Streamed 3 months ago
Аналитика доходности инвестиционного портфеля Тинькофф брокера на Python. API Тинькофф инвестиции,https://www.youtube.com/watch?v=QJ6yRulR_HA,1:17:01,23K views,3 months ago
"Ускоряем MacBook - чистим вентиляторы от пыли, замена термопасты",https://www.youtube.com/watch?v=Da59bDrG_S4,15:05,5.2K views,3 months ago
"Стрим — ответы на вопросы, результаты конкурса книг",https://www.youtube.com/watch?v=BXFkMtEYs14,2:13:46,5.1K views,Streamed 3 months ago
"20 советов об IT бизнесе тем, кто планирует открыть своё дело",https://www.youtube.com/watch?v=6PNz143qu5c,37:56,50K views,4 months ago
👑 Шифруем файлы и пароли аки Царь с GPG и Pass!,https://www.youtube.com/watch?v=I2mwqC6HGGE,26:53,14K views,4 months ago
🚀Собираем масштабируемую архитектуру веб-приложения. Горизонтальное и вертикальное масштабирование,https://www.youtube.com/watch?v=kclYmb47LTg,47:45,27K views,5 months ago
#1. Читаем исходники open source Python библиотек. Loguru!,https://www.youtube.com/watch?v=g6zzZxxifAw,58:19,37K views,5 months ago
Зачем в Python .pyi файлы и чем они полезны? Stub файлы в Python,https://www.youtube.com/watch?v=KofihAoSp2U,6:34,17K views,5 months ago
"Книги, которые меня изменили. Дарим книги!",https://www.youtube.com/watch?v=OexVrCY6K_Y,23:12,22K views,5 months ago
Лёгкое логирование в Python с Loguru. Замена встроенной библиотеке logging,https://www.youtube.com/watch?v=3ndEeGDVqD4,10:58,14K views,5 months ago
SSH alias или делаем SSH логин удобным,https://www.youtube.com/watch?v=b7GJG4te0l4,2:01,8.7K views,6 months ago
"Пишем веб-аналитику на Go и Python c Redis. Выбор архитектуры, обзор инструментов и кода",https://www.youtube.com/watch?v=SIdSeUkQH6U,23:23,19K views,6 months ago
Асинхронность в McDonalds и Python,https://www.youtube.com/watch?v=b3iXdDmXm7s,6:20,16K views,6 months ago
"Почему тебе нужен PgBouncer, как его установить? Оптимизируем веб-приложения с PostgreSQL",https://www.youtube.com/watch?v=W-nOdwlxmhA,12:39,17K views,6 months ago
"Принцип EAFP в Python, работа с исключениями в Python. Применение принципов Zen of Python",https://www.youtube.com/watch?v=f-GFxTlqD2Q,7:16,14K views,7 months ago
Про базовый фундамент в разработке веб-приложений,https://www.youtube.com/watch?v=lEY2JxA2gZ0,10:52,19K views,7 months ago
"Компьютер для разработчика — что выбрать? Системник/ноутбук, Windows/Mac OS/Linux, какие модели?",https://www.youtube.com/watch?v=NtHvTWLr1yY,16:37,43K views,7 months ago
Асинхронный Python-код медленнее обычного кода! Ааа!!1один. Aiohttp VS синхронные фреймворки,https://www.youtube.com/watch?v=z7WIm0iZcOU,20:52,26K views,7 months ago
"Многопроцессность, многопоточность, асинхронность в Python и не только. Что это и как работает?",https://www.youtube.com/watch?v=JIp14T9bvvc,16:03,30K views,7 months ago
"Django Middleware — что это, зачем и как использовать",https://www.youtube.com/watch?v=Qe8YI5wXJng,14:48,14K views,7 months ago
Поговорим о курсах Диджитализируй!,https://www.youtube.com/watch?v=Wto-q9A_jD0,2:50:11,9.7K views,Streamed 8 months ago
Логирование в Python и Django,https://www.youtube.com/watch?v=nAK-Tpc3NMI,19:58,13K views,8 months ago
Обработка и отслеживание ошибок и исключений в Django,https://www.youtube.com/watch?v=4qQDFt4EXdk,9:14,6.2K views,8 months ago
Всё об исключениях и работе с ними в Python,https://www.youtube.com/watch?v=89wpfOAgrCk,30:34,13K views,8 months ago
"jQuery и современный JavaScript/CSS, пара слов о развитии фронтенда",https://www.youtube.com/watch?v=onAUzEWpPBI,13:39,22K views,8 months ago
Как хранить пароли и ключи в коде проектов? Всё о переменных окружения. Пример с Django,https://www.youtube.com/watch?v=Y9MRCxq4DIc,14:20,21K views,8 months ago
Бизнес-логика в Django и архитектура Django проектов — на настоящем примере,https://www.youtube.com/watch?v=LPo29ygf0wA,57:48,38K views,8 months ago
"Кредитки, банки, деньги. Мои истории. Серьёзный разговор",https://www.youtube.com/watch?v=4eaxkK79E3o,22:23,13K views,8 months ago
Исправьте СРОЧНО эти 12 ошибок в ваших Python проектах,https://www.youtube.com/watch?v=0ewD6JkmZ0M,23:41,30K views,8 months ago
Стрим с Code Review вашего Python кода # 2,https://www.youtube.com/watch?v=-wl9VX5JXOQ,2:33:54,13K views,Streamed 8 months ago
Стрим с Code Review вашего Python кода,https://www.youtube.com/watch?v=m5MiTLV3MNw,3:06:08,34K views,Streamed 8 months ago
Притча про Техническое Задание,https://www.youtube.com/watch?v=diNakIBi--4,11:56,15K views,9 months ago
"Всё о мобильном Интернет в деревне: антенны, модемы, сети, частоты. MikroTik LHG LTE6 kit",https://www.youtube.com/watch?v=Iu29KBS0_qE,50:47,581K views,9 months ago
БОЖЕСТВЕННЫЙ Python 3.9 уже здесь,https://www.youtube.com/watch?v=HrGg6KTJwhA,7:51,57K views,10 months ago
Шифруем и бэкапим PostgreSQL в Яндекс Object Storage / S3 на Python,https://www.youtube.com/watch?v=30TBpI4lEPI,20:06,8.1K views,10 months ago
Сделай свой vim sexy с тысячей тем и их удобным выбором!,https://www.youtube.com/watch?v=baDKp_--DqE,5:57,14K views,10 months ago
"Синдром самозванца, Бертран Рассел, Влади и профессионализм",https://www.youtube.com/watch?v=4WkKzZFf94I,7:48,12K views,10 months ago
Ставим любой софт из исходников на примере PostgreSQL или когда пакетного менеджера мало,https://www.youtube.com/watch?v=Y_bker96mK8,15:39,12K views,11 months ago
Сжимаем JPG с сайта РБК на 659%. Выжмем из JPEG максимум с jpegoptim!,https://www.youtube.com/watch?v=OFtqNy6PEeE,8:36,12K views,11 months ago
"Графика для веба, которую все используют неправильно. Про JPG/PNG, WebP и SVG, а также мощь HTML5",https://www.youtube.com/watch?v=0n6Tk-2Dimc,14:47,14K views,11 months ago
Что должен знать Python веб-разработчик для приёма на работу?,https://www.youtube.com/watch?v=9kLI6R0heTQ,32:13,110K views,1 year ago
"Наглядно о том, как Vim рвёт в щепки Sublime, Atom, PyCharm",https://www.youtube.com/watch?v=Ob1rqhKwZlI,15:20,57K views,1 year ago
Настройка Vim. Простейший конфиг Vim (.vimrc) для разработки,https://www.youtube.com/watch?v=xmYil6Y9X68,10:17,28K views,1 year ago
Как писать резюме программисту? Разбор реальных резюме с точки зрения работодателя,https://www.youtube.com/watch?v=XM-SR1uc3b8,27:35,23K views,1 year ago
Почему я работаю стоя? Столы с регулируемой высотой. Обзор стола Shapdesk с дубовой столешницей,https://www.youtube.com/watch?v=fGWWEFtoBjs,12:09,19K views,1 year ago
Звоним на мобильные и городские телефоны из браузера с VoxImplant,https://www.youtube.com/watch?v=VcBJmHNSxG4,14:15,10K views,1 year ago
Критично важные качества для профессионального успеха,https://www.youtube.com/watch?v=Xbp3Bw_OWpw,9:50,14K views,1 year ago
"Архитектура ПО, MVC и бизнес-логика. Критика Django",https://www.youtube.com/watch?v=HpL6ymFEuu4,20:26,31K views,1 year ago
Моя самая любимая программа. ТОП-1. Evernote!,https://www.youtube.com/watch?v=AfZxgMRS0t4,12:28,39K views,1 year ago
"А есть ли вообще способ выйти из Vim? Как уничтожить Vim, если он внезапно открылся?",https://www.youtube.com/watch?v=Q1RUYQIgVKM,7:59,18K views,1 year ago
"Пишем Telegram бот для учёта расходов с Python, Asyncio/Aiogram, SQLite и Docker",https://www.youtube.com/watch?v=Kh16iosOTIQ,33:59,92K views,1 year ago
"Поиск файлов в Linux и Unix — find, grep, ack, ripgrep",https://www.youtube.com/watch?v=ka9mMFI7f74,7:02,15K views,1 year ago
"🔥Разбираем SQL на примере PostgreSQL — SELECT, JOIN, GROUP, HAVING, Coalesce и др.",https://www.youtube.com/watch?v=WpojDncIWOw,40:55,246K views,1 year ago
"Курсы программирования — когда нужно покупать, а когда нет? Мой опыт и моё мнение",https://www.youtube.com/watch?v=lJMCB2ZH90g,11:50,71K views,1 year ago
Чем так крут Python — реальный пример. Продуманная архитектура Python,https://www.youtube.com/watch?v=cwAors_xDA4,14:54,207K views,1 year ago
Как стать программистом с нуля? Советы и мотивация от специалиста с 15-летним опытом,https://www.youtube.com/watch?v=U7uCJ0ht_bM,8:55,48K views,1 year ago
Шаблон Django проекта с конфигами для быстрого разворачивания сервера,https://www.youtube.com/watch?v=uXTZMurM0FY,7:14,21K views,1 year ago
"Python 3.8 — офигенный, а Гвидо больше не диктатор #ityoutubersru",https://www.youtube.com/watch?v=IU8b2iQ_IPU,8:30,53K views,1 year ago
Apache против Nginx. Apache есть место в 2019м? Сравнение двух лидирующих HTTP серверов,https://www.youtube.com/watch?v=zdvuN8fMLVA,13:05,31K views,1 year ago
"Настраиваем PHP сервер на домене — Linux, Apache, MariaDB, PHP. Привязка домена, установка WordPress",https://www.youtube.com/watch?v=LvvSlljb8Yw,18:07,7.3K views,1 year ago
Работаем с Google Sheets API на Python,https://www.youtube.com/watch?v=Bf8KHZtcxnA,14:05,24K views,1 year ago
Эффективно работаем со сложными структурами данных в Python 3.7+,https://www.youtube.com/watch?v=tsEG0WM3m_M,7:06,14K views,1 year ago
"Основы LaTeX для тех, кто ещё не пробовал. Зачем он в 2019? Урок LaTeX",https://www.youtube.com/watch?v=8dCm1V1XDzw,14:33,47K views,1 year ago
"Про хейт, смысл и батарейки",https://www.youtube.com/watch?v=X8AKW9BNq10,9:34,6.2K views,1 year ago
Настраиваем VPN со своим сервером. Как настроить VPN? Свой VPN сервер на Debian,https://www.youtube.com/watch?v=VBWydSqksFY,6:28,24K views,1 year ago
Pocketbook 740 — обзор книги для разработчиков,https://www.youtube.com/watch?v=v-WObQT2UtI,11:46,41K views,1 year ago
Поднимаем Debian сервер для Python/Django — установка и настройка с нуля. Как настроить сервер?,https://www.youtube.com/watch?v=FLiKTJqyyvs,35:11,67K views,1 year ago
"Tmux буферы, скролинг и копирование текста",https://www.youtube.com/watch?v=s3kN5H87W_E,6:56,4.7K views,1 year ago
"Программирую на телефоне. Почему надо знать Linux, vim, tmux? Твой Windows & IDE так не умеют",https://www.youtube.com/watch?v=2Dv61Gz3M4Q,6:50,81K views,1 year ago
"Настраиваем tmux по хардкору! Копирование из tmux, статус бар, цвета, hot keys",https://www.youtube.com/watch?v=LkFtvMzMwjw,13:24,14K views,1 year ago
Есть ли жизнь на фрилансе? Стоит ли новичкам идти на фриланс биржи?,https://www.youtube.com/watch?v=cOQzh14RhVY,8:34,7.2K views,1 year ago
Английский для программистов и IT специалистов: мой опыт + словарь,https://www.youtube.com/watch?v=QO2EkfxKdAE,10:20,39K views,1 year ago
"Именование переменных, классов и методов в коде",https://www.youtube.com/watch?v=hjdRQspuelk,25:40,20K views,1 year ago
Разрабатывать в Vim или в IDE? Vim vs IDE. Где писать код?,https://www.youtube.com/watch?v=yog7sNQOryM,18:46,29K views,1 year ago
Ищем Python/Django разработчика в нашу команду!,https://www.youtube.com/watch?v=zblfW8V7lY0,1:04,2.3K views,1 year ago
Ищем ботов в Instagram подписчиках на Python,https://www.youtube.com/watch?v=IBmWSr4_9XA,47:04,30K views,2 years ago
Куда пойти работать IT специалисту? В корпорацию или небольшую компанию?,https://www.youtube.com/watch?v=fsUXvxCbDH0,13:11,13K views,2 years ago
Запуск среды разработки в tmux,https://www.youtube.com/watch?v=P10cuGj-J8E,6:54,11K views,2 years ago
Nginx без downtime на продакшн системе / Nginx hot reload,https://www.youtube.com/watch?v=PPUAgIRucIc,2:45,4.1K views,2 years ago
Как получить и настроить LetsEncrypt SSL сертификат для сайта?,https://www.youtube.com/watch?v=1wnOw1vwPEo,4:31,24K views,2 years ago
Настраиваем авторизацию SSH по ключу в Linux / Unix,https://www.youtube.com/watch?v=IVHv3eVQa14,5:33,20K views,2 years ago
Эффективно копируем гигабайтные файлы по сети в Linux / Unix / Mac OS,https://www.youtube.com/watch?v=vTkJhy-Deck,3:18,13K views,2 years ago
Ты неправильно замеряешь время в Python! Или нет?,https://www.youtube.com/watch?v=9AHe6NhLs0s,1:44,13K views,2 years ago
Htop — менеджер процессов Linux / Unix / Mac OS X,https://www.youtube.com/watch?v=21yn_RAtPA8,7:07,20K views,2 years ago
Tmux — что это и зачем? Обзор и урок tmux,https://www.youtube.com/watch?v=1Y2CD4WnbP0,9:51,55K views,2 years ago
Отзыв: ВетЭксперт,https://www.youtube.com/watch?v=fD9J37KRIBs,2:15,625 views,2 years ago
Отзыв: сеть детских клубов Созвездие,https://www.youtube.com/watch?v=ivEHEOir88M,6:39,2K views,2 years ago
Отзыв: ЖелДорЗайм,https://www.youtube.com/watch?v=3jTC4CyNhnc,1:30,717 views,2 years ago
Отзыв: издательский холдинг Эксмо-АСТ,https://www.youtube.com/watch?v=dKoECi2-oTE,0:45,958 views,2 years ago
Полезное: книга «Одноминутный менеджер и обезьяны»,https://www.youtube.com/watch?v=pbe07Iu9qHI,2:41,3.8K views,3 years ago
"Изучаем Vim, команды и макросы. Зачем текстовый редактор Vim в 2018? Урок Vim",https://www.youtube.com/watch?v=SHo3fAZfXMk,14:50,78K views,3 years ago
