title,town,url
Backend Developer (Cloud Product),Moscow / Perm / Remotely,https://gcorelabs.com/careers/backend-developer-cloud-product/
Backend Developer (DDoS Protection),Minsk / Moscow / Perm / Remotely,https://gcorelabs.com/careers/backend-developer-ddos-protection/
Backend/Infrastrusture Developer (Cloud Product),Minsk / Moscow / Perm / Remotely,https://gcorelabs.com/careers/backend-infrastrusture-developer-cloud-product/
CDN Network Engineer,Moscow / Perm / Remotely,https://gcorelabs.com/careers/cdn-network-engineer/
Frontend Developer,Moscow / Perm / Remotely,https://gcorelabs.com/careers/frontend-developer/
Head of Information Security,Minsk / Moscow / Perm / Remotely,https://gcorelabs.com/careers/head-of-information-security/
Network Engineer,Moscow,https://gcorelabs.com/careers/network-engineer/
Product Manager (Connectivity services),Minsk / Moscow / Perm / Luxembourg / Remotely / Amsterdam,https://gcorelabs.com/careers/product-manager-connectivity-services/
Recruiter,Minsk / Moscow / Perm / Remotely,https://gcorelabs.com/careers/recruiter/
Recruitment Lead,Minsk / Moscow / Perm / Remotely,https://gcorelabs.com/careers/recruitment-lead/
Sales Manager (APAC),Minsk / Luxembourg / Remotely / Amsterdam,https://gcorelabs.com/careers/sales-manager-apac/
Sales Manager (Global),Minsk / Luxembourg / Remotely / Amsterdam,https://gcorelabs.com/careers/sales-manager-global/
Software Engineer (C language),Moscow / Perm / Remotely,https://gcorelabs.com/careers/software-engineer-c-language/
System Engineer (Cloud Engineering Team),Minsk / Moscow / Perm / Remotely,https://gcorelabs.com/careers/system-engineer-cloud-engineering-team/
Systems Engineer,Minsk / Moscow / Perm / Remotely,https://gcorelabs.com/careers/systems-engineer/
